{
  "project_info": {
    "project_number": "220621612316",
    "firebase_url": "https://opsgenieassignment.firebaseio.com",
    "project_id": "opsgenieassignment",
    "storage_bucket": "opsgenieassignment.appspot.com"
  },
  "client": [
    {
      "client_info": {
        "mobilesdk_app_id": "1:220621612316:android:d8a3cdd429757fbd",
        "android_client_info": {
          "package_name": "com.example.user.opsgenie_assignment"
        }
      },
      "oauth_client": [
        {
          "client_id": "220621612316-9fg3jgbpumgaprvc0b3daicceahr6fui.apps.googleusercontent.com",
          "client_type": 3
        }
      ],
      "api_key": [
        {
          "current_key": "AIzaSyAFuKlXtHw54lIFJ3w3FXiQZzjXaOYaTKc"
        }
      ],
      "services": {
        "analytics_service": {
          "status": 1
        },
        "appinvite_service": {
          "status": 1,
          "other_platform_oauth_client": []
        },
        "ads_service": {
          "status": 2
        }
      }
    }
  ],
  "configuration_version": "1"
}